text analysis project – Abhishek Chakraborty
…
DataSciencePapers |>
  group_by(primary_category) |>
  count()

# A tibble: 99 × 2
# Groups:   primary_category [99]
   primary_category       n
   <chr>              <int>
 1 astro-ph               1
 2 astro-ph.CO            3
 3 astro-ph.EP            1
 4 astro-ph.GA            7
 5 astro-ph.IM           20
 6 astro-ph.SR            6
 7 cond-mat.dis-nn        1
 8 cond-mat.mtrl-sci      7
 9 cond-mat.quant-gas     1
10 cond-mat.str-el        3
# ℹ 89 more rows
…
field
   gr-qc   hep-ph  nucl-th   hep-th     econ quant-ph cond-mat    q-fin 
       1        1        1        3        5        7       12       15 
   q-bio     eess astro-ph  physics     math     stat       cs    Total 
      16       29       38       62      103      150      646     1089 

corpora and tokenization

DataSciencePapers |>
  unnest_tokens(output = word, input = abstract, token = "words") |>
  count(id, word, sort = TRUE)

# A tibble: 120,509 × 3
   id           word      n
   <chr>        <chr> <int>
 1 2003.11213v1 the      31
 2 1508.02387v1 the      30
 3 1711.10558v1 the      30
 4 1805.09320v2 the      30
 5 2004.04813v2 the      27
 6 2007.08242v1 the      27
 7 1711.09726v3 the      26
 8 1805.11012v1 the      26
 9 1909.10578v1 the      26
10 1404.5971v2  the      25
# ℹ 120,499 more rows

arxiv_words <- DataSciencePapers |>
  unnest_tokens(output = word, input = abstract, token = "words") |>
  anti_join(tidytext::get_stopwords(), by = "word")

arxiv_words |>
  count(id, word, sort = TRUE)

# A tibble: 93,681 × 3
   id           word        n
   <chr>        <chr>   <int>
 1 2007.03606v1 data       20
 2 1708.04664v1 data       19
 3 1606.06769v1 traffic    17
 4 1705.03451v2 data       17
 5 1601.06035v1 models     16
 6 1807.09127v2 job        16
 7 2003.10534v1 data       16
 8 1611.09874v1 ii         15
 9 1808.04849v1 data       15
10 1906.03418v1 data       15
# ℹ 93,671 more rows
…
We can join this lexicon with our data to calculate a sentiment score.

arxiv_words |> 
  inner_join(afinn, by = "word") |>
  select(word, id, value)

# A tibble: 7,397 × 3
   word      id                 value
   <chr>     <chr>              <dbl>
 1 ambitious astro-ph/0701361v1     2
 2 powerful  astro-ph/0701361v1     2
 3 impotent  astro-ph/0701361v1    -2
 4 like      astro-ph/0701361v1     2
 5 agree     astro-ph/0701361v1     1
 6 better    0901.2805v1            2
 7 better    0901.2805v1            2
 8 better    0901.2805v1            2
 9 improve   0901.2805v1            2
10 support   0901.3118v2            2
# ℹ 7,387 more rows
…
bigrams

arxiv_bigrams <- arxiv_papers |>
  unnest_tokens(
    output = arxiv_bigram, 
    input = abstract_clean, 
    token = "ngrams", 
    n = 2
  ) |>
  dplyr::select(arxiv_bigram, id)

arxiv_bigrams

# A tibble: 121,642 × 2
   arxiv_bigram            id                
   <chr>                   <chr>             
 1 astronomy one           astro-ph/0701361v1
 2 one data                astro-ph/0701361v1
 3 data intensive          astro-ph/0701361v1
 4 intensive sciences      astro-ph/0701361v1
 5 sciences data           astro-ph/0701361v1
 6 data technology         astro-ph/0701361v1
 7 technology accelerating astro-ph/0701361v1
 8 accelerating quality    astro-ph/0701361v1
 9 quality effectiveness   astro-ph/0701361v1
10 effectiveness research  astro-ph/0701361v1
# ℹ 121,632 more rows

arxiv_bigrams |>
  count(arxiv_bigram, sort = TRUE)

# A tibble: 96,854 × 2
   arxiv_bigram         n
   <chr>            <int>
 1 data science       953
 2 machine learning   403
 3 big data           139
 4 state art          121
 5 data analysis      111
 6 deep learning      108
 7 e g                105
 8 neural networks    100
 9 real world          97
10 large scale         83
# ℹ 96,844 more rows
…
tidy_DTM <- arxiv_words |>
  count(id, word) |>
  tidytext::bind_tf_idf(word, id, n)

tidy_DTM

# A tibble: 93,681 × 6
   id          word              n      tf   idf tf_idf
   <chr>       <chr>         <int>   <dbl> <dbl>  <dbl>
 1 0901.2805v1 1989              1 0.00862  6.30 0.0543
 2 0901.2805v1 2001              1 0.00862  5.61 0.0483
 3 0901.2805v1 2600              2 0.0172   6.99 0.121 
 4 0901.2805v1 41                1 0.00862  6.30 0.0543
 5 0901.2805v1 740               1 0.00862  6.99 0.0603
 6 0901.2805v1 accessibility     1 0.00862  5.38 0.0464
 7 0901.2805v1 amounts           1 0.00862  3.59 0.0310
 8 0901.2805v1 analysis          1 0.00862  1.21 0.0104
 9 0901.2805v1 archival          1 0.00862  6.30 0.0543
10 0901.2805v1 articles          3 0.0259   4.10 0.106 
# ℹ 93,671 more rows
…
[1] "Artificial intelligence has been applied in wildfire science and"      
[2] "management since the 1990s, with early applications including neural"  
[3] "networks and expert systems. Since then the field has rapidly"         
[4] "progressed congruently with the wide adoption of machine learning (ML)"
[5] "in the environmental sciences. Here, we present a scoping review of ML"
[6] "in wildfire science and management. Our objective is to improve"       

tidy_DTM |>
  filter(word == "implications")

# A tibble: 25 × 6
   id           word             n      tf   idf tf_idf
   <chr>        <chr>        <int>   <dbl> <dbl>  <dbl>
 1 1310.4461v2  implications     1 0.00840  3.77 0.0317
 2 1410.6646v1  implications     1 0.00719  3.77 0.0272
 3 1511.07643v1 implications     1 0.00621  3.77 0.0234
 4 1601.04890v2 implications     1 0.00680  3.77 0.0257
 5 1608.05127v1 implications     1 0.00595  3.77 0.0225
 6 1706.03102v1 implications     1 0.00862  3.77 0.0325
 7 1707.07029v1 implications     1 0.167    3.77 0.629 
 8 1711.04712v1 implications     1 0.00901  3.77 0.0340
 9 1803.05991v1 implications     1 0.00595  3.77 0.0225
10 1804.10846v6 implications     1 0.00909  3.77 0.0343
# ℹ 15 more rows
…
